<?xml version="1.0" encoding="UTF-8"?>
<testng-results ignored="1" total="5" passed="4" failed="0" skipped="0">
  <reporter-output>
  </reporter-output>
  <suite started-at="2021-12-30T18:31:10 NZDT" name="Command line suite" finished-at="2021-12-30T18:31:10 NZDT" duration-ms="59">
    <groups>
      <group name="SmokeTC">
        <method signature="TestCase1.display1()[pri:0, instance:TestSuite.TestCase1@747ddf94]" name="display1" class="TestSuite.TestCase1"/>
        <method signature="TestCase2.display1()[pri:0, instance:TestSuite.TestCase2@3023df74]" name="display1" class="TestSuite.TestCase2"/>
      </group> <!-- SmokeTC -->
    </groups>
    <test started-at="2021-12-30T18:31:10 NZDT" name="Command line test" finished-at="2021-12-30T18:31:10 NZDT" duration-ms="59">
      <class name="TestSuite.TestCase2">
        <test-method signature="display1()[pri:0, instance:TestSuite.TestCase2@3023df74]" started-at="2021-12-30T18:31:10 NZDT" name="display1" finished-at="2021-12-30T18:31:10 NZDT" duration-ms="1" status="PASS">
          <reporter-output>
          </reporter-output>
        </test-method> <!-- display1 -->
        <test-method signature="testy()[pri:0, instance:TestSuite.TestCase2@3023df74]" started-at="2021-12-30T18:31:10 NZDT" name="testy" finished-at="2021-12-30T18:31:10 NZDT" duration-ms="0" status="PASS">
          <reporter-output>
          </reporter-output>
        </test-method> <!-- testy -->
      </class> <!-- TestSuite.TestCase2 -->
      <class name="TestSuite.TestCase1">
        <test-method signature="display1()[pri:0, instance:TestSuite.TestCase1@747ddf94]" started-at="2021-12-30T18:31:10 NZDT" name="display1" finished-at="2021-12-30T18:31:10 NZDT" duration-ms="7" status="PASS">
          <reporter-output>
          </reporter-output>
        </test-method> <!-- display1 -->
        <test-method signature="testx()[pri:0, instance:TestSuite.TestCase1@747ddf94]" started-at="2021-12-30T18:31:10 NZDT" name="testx" finished-at="2021-12-30T18:31:10 NZDT" duration-ms="0" status="PASS">
          <reporter-output>
          </reporter-output>
        </test-method> <!-- testx -->
      </class> <!-- TestSuite.TestCase1 -->
    </test> <!-- Command line test -->
  </suite> <!-- Command line suite -->
</testng-results>
