JavaPractice\PracticeMethods.class
JavaPractice\DistributeSalary.class
JavaPractice\Practice1.class
JavaPractice\PracticeArrays.class
TestSuite\TestCase1.class
FirstSelenium.class
TestSuite\TestCase2.class
JavaPractice\locateIDs.class
JavaPractice\PracticeConstructors.class
GmailExample.class
FirstClass.class
